\relax 
\providecommand\hyper@newdestlabel[2]{}
\catcode `"\active 
\providecommand\HyperFirstAtBeginDocument{\AtBeginDocument}
\HyperFirstAtBeginDocument{\ifx\hyper@anchor\@undefined
\global\let\oldcontentsline\contentsline
\gdef\contentsline#1#2#3#4{\oldcontentsline{#1}{#2}{#3}}
\global\let\oldnewlabel\newlabel
\gdef\newlabel#1#2{\newlabelxx{#1}#2}
\gdef\newlabelxx#1#2#3#4#5#6{\oldnewlabel{#1}{{#2}{#3}}}
\AtEndDocument{\ifx\hyper@anchor\@undefined
\let\contentsline\oldcontentsline
\let\newlabel\oldnewlabel
\fi}
\fi}
\global\let\hyper@last\relax 
\gdef\HyperFirstAtBeginDocument#1{#1}
\providecommand*\HyPL@Entry[1]{}
\HyPL@Entry{0<</S/D /St 2>>}
\select@language {russian}
\@writefile{toc}{\select@language {russian}}
\@writefile{lof}{\select@language {russian}}
\@writefile{lot}{\select@language {russian}}
\@writefile{toc}{\contentsline {section}{\numberline {1}Аналитический обзор литературы}{6}{section.1}\protected@file@percent }
\@writefile{lof}{\contentsline {figure}{\numberline {1.1}{\ignorespaces Два параллельных рельса пересекаются в плоскости изображения в точке схода.\relax }}{7}{figure.caption.1}\protected@file@percent }
\providecommand*\caption@xref[2]{\@setref\relax\@undefined{#1}}
\newlabel{fig:traintrack}{{1.1}{7}{Два параллельных рельса пересекаются в плоскости изображения в точке схода.\relax }{figure.caption.1}{}}
\@writefile{toc}{\contentsline {subsection}{\numberline {1.1}Модель камеры-обскуры}{7}{subsection.1.1}\protected@file@percent }
\@writefile{toc}{\contentsline {subsubsection}{\numberline {1.1.1}Внутренние параметры камеры}{8}{subsubsection.1.1.1}\protected@file@percent }
\@writefile{toc}{\contentsline {subsubsection}{\numberline {1.1.2}Перспективная проекция с использованием однородных координат}{8}{subsubsection.1.1.2}\protected@file@percent }
\@writefile{lof}{\contentsline {figure}{\numberline {1.2}{\ignorespaces Идеальная модель камеры с точечным отверстием описывает взаимосвязь между трехмерной точкой и соответствующей ей двухмерной проекцией на плоскость изображения.\relax }}{9}{figure.caption.2}\protected@file@percent }
\newlabel{fig:pinhole}{{1.2}{9}{Идеальная модель камеры с точечным отверстием описывает взаимосвязь между трехмерной точкой и соответствующей ей двухмерной проекцией на плоскость изображения.\relax }{figure.caption.2}{}}
\@writefile{toc}{\contentsline {subsubsection}{\numberline {1.1.3}Смещение главной точки}{9}{subsubsection.1.1.3}\protected@file@percent }
\newlabel{eq:proj}{{1.6}{10}{Смещение главной точки}{equation.1.6}{}}
\@writefile{toc}{\contentsline {subsubsection}{\numberline {1.1.4}Характеристики датчика изображения}{10}{subsubsection.1.1.4}\protected@file@percent }
\@writefile{lof}{\contentsline {figure}{\numberline {1.3}{\ignorespaces Система координат изображения $ (x, y) $ и камеры $ (u, v) $.\relax }}{11}{figure.caption.3}\protected@file@percent }
\newlabel{fig:camcoord}{{1.3}{11}{Система координат изображения $ (x, y) $ и камеры $ (u, v) $.\relax }{figure.caption.3}{}}
\@writefile{lof}{\contentsline {figure}{\numberline {1.4}{\ignorespaces Неидеальный сенсор камеры с неквадратными, перекошенными пикселями.\relax }}{11}{figure.caption.4}\protected@file@percent }
\newlabel{fig:nonsquare}{{1.4}{11}{Неидеальный сенсор камеры с неквадратными, перекошенными пикселями.\relax }{figure.caption.4}{}}
\@writefile{toc}{\contentsline {subsubsection}{\numberline {1.1.5}Искажение радиальной линзы}{11}{subsubsection.1.1.5}\protected@file@percent }
\@writefile{lof}{\contentsline {figure}{\numberline {1.5}{\ignorespaces Система координат изображения $ (x, y) $ и камеры $ (u, v) $.\relax }}{12}{figure.caption.5}\protected@file@percent }
\newlabel{fig:unrad}{{1.5}{12}{Система координат изображения $ (x, y) $ и камеры $ (u, v) $.\relax }{figure.caption.5}{}}
\@writefile{lof}{\contentsline {figure}{\numberline {1.6}{\ignorespaces Неидеальный датчик изображения с не квадратными перекосами пикселей.\relax }}{12}{figure.caption.6}\protected@file@percent }
\newlabel{fig:rad}{{1.6}{12}{Неидеальный датчик изображения с не квадратными перекосами пикселей.\relax }{figure.caption.6}{}}
\newlabel{eq:rad}{{1.8}{12}{Искажение радиальной линзы}{equation.1.8}{}}
\newlabel{eq:Lrd}{{1.9}{12}{Искажение радиальной линзы}{equation.1.9}{}}
\newlabel{eq:ru}{{1.12}{13}{Искажение радиальной линзы}{equation.1.12}{}}
\newlabel{eq:cubicpolinom}{{1.13}{13}{Искажение радиальной линзы}{equation.1.13}{}}
\@writefile{lof}{\contentsline {figure}{\numberline {1.7}{\ignorespaces (а) Искаженное изображение. (б) Соответствующее исправленное изображение с использованием метода инвертированного отображения.\relax }}{15}{figure.caption.7}\protected@file@percent }
\newlabel{fig:chess_dist}{{1.7}{15}{(а) Искаженное изображение. (б) Соответствующее исправленное изображение с использованием метода инвертированного отображения.\relax }{figure.caption.7}{}}
\@writefile{lof}{\contentsline {figure}{\numberline {1.8}{\ignorespaces Отношение между камерой и мировой системой координат определяется центром камеры $ C $ и вращением камеры $ R $.\relax }}{15}{figure.caption.8}\protected@file@percent }
\newlabel{fig:extrinsic}{{1.8}{15}{Отношение между камерой и мировой системой координат определяется центром камеры $ C $ и вращением камеры $ R $.\relax }{figure.caption.8}{}}
\@writefile{toc}{\contentsline {subsection}{\numberline {1.2}Внешние параметры камеры}{15}{subsection.1.2}\protected@file@percent }
\newlabel{eq:lambdap}{{1.17}{16}{Внешние параметры камеры}{equation.1.17}{}}
\newlabel{eq:krc}{{1.18}{16}{Внешние параметры камеры}{equation.1.18}{}}
\@writefile{toc}{\contentsline {subsubsection}{\numberline {1.2.1}Обратная проекция 2D точки в 3D}{16}{subsubsection.1.2.1}\protected@file@percent }
\@writefile{toc}{\contentsline {subsection}{\numberline {1.3}Преобразование системы координат}{17}{subsection.1.3}\protected@file@percent }
\@writefile{toc}{\contentsline {subsubsection}{\numberline {1.3.1}Изменение системы координат изображения}{17}{subsubsection.1.3.1}\protected@file@percent }
\newlabel{eq:conv_projection}{{1.21}{18}{Изменение системы координат изображения}{equation.1.21}{}}
\@writefile{toc}{\contentsline {subsubsection}{\numberline {1.3.2}Изменение мировой системы координат}{18}{subsubsection.1.3.2}\protected@file@percent }
\@writefile{lof}{\contentsline {figure}{\numberline {1.9}{\ignorespaces  Трехмерную точку $ P $ можно определить в двух разных мировых системах координат. Определение $ P $ в новой системе координат включает (1) преобразование его трехмерных координат и (2) преобразование внешних параметров. \relax }}{19}{figure.caption.9}\protected@file@percent }
\newlabel{fig:world_coord_conv}{{1.9}{19}{Трехмерную точку $ P $ можно определить в двух разных мировых системах координат. Определение $ P $ в новой системе координат включает (1) преобразование его трехмерных координат и (2) преобразование внешних параметров. \relax }{figure.caption.9}{}}
\@writefile{toc}{\contentsline {subsection}{\numberline {1.4}Калибровка камеры}{19}{subsection.1.4}\protected@file@percent }
\@writefile{lof}{\contentsline {figure}{\numberline {1.10}{\ignorespaces  Планарный шаблон шахматной доски определяет трехмерную мировую систему координат и дополнительно позволяет обнаруживать трехмерные характерные точки. \relax }}{20}{figure.caption.10}\protected@file@percent }
\newlabel{fig:chess}{{1.10}{20}{Планарный шаблон шахматной доски определяет трехмерную мировую систему координат и дополнительно позволяет обнаруживать трехмерные характерные точки. \relax }{figure.caption.10}{}}
\@writefile{toc}{\contentsline {subsubsection}{\numberline {1.4.1}Оценка параметров камеры}{20}{subsubsection.1.4.1}\protected@file@percent }
\newlabel{eq:homoh0}{{1.24}{21}{Оценка параметров камеры}{equation.1.24}{}}
\newlabel{eq:homoh}{{1.25}{21}{Оценка параметров камеры}{equation.1.25}{}}
\@writefile{toc}{\contentsline {subsubsection}{\numberline {1.4.2}Оценка гомографического преобразования}{21}{subsubsection.1.4.2}\protected@file@percent }
\newlabel{eq:homoh2}{{1.26}{22}{Оценка гомографического преобразования}{equation.1.26}{}}
\newlabel{eq:homoh3}{{1.27}{22}{Оценка гомографического преобразования}{equation.1.27}{}}
\newlabel{eq:homoh4}{{1.28}{22}{Оценка гомографического преобразования}{equation.1.28}{}}
\newlabel{eq:homoh5}{{1.30}{22}{Оценка гомографического преобразования}{equation.1.30}{}}
\newlabel{eq:homoh6}{{1.31}{22}{Оценка гомографического преобразования}{equation.1.31}{}}
\@writefile{toc}{\contentsline {subsubsection}{\numberline {1.4.3}Расчет внутренних параметров}{24}{subsubsection.1.4.3}\protected@file@percent }
\newlabel{eq:internal}{{1.33}{24}{Расчет внутренних параметров}{equation.1.33}{}}
\newlabel{eq:internal1}{{1.38}{25}{Расчет внутренних параметров}{equation.1.38}{}}
\@writefile{toc}{\contentsline {subsubsection}{\numberline {1.4.4}Расчет внешних параметров}{26}{subsubsection.1.4.4}\protected@file@percent }
\@writefile{toc}{\contentsline {subsubsection}{\numberline {1.4.5}Нелинейное уточнение параметров камеры}{27}{subsubsection.1.4.5}\protected@file@percent }
\@writefile{toc}{\contentsline {subsection}{\numberline {1.5}Двухракурсная геометрия}{27}{subsection.1.5}\protected@file@percent }
\@writefile{lof}{\contentsline {figure}{\numberline {1.11}{\ignorespaces  Эпиполярная геометрия. (а) Эпиполярная плоскость определяется точкой $ P $ и двумя центрами камеры $ C_1 $ и $ C_2 $. (б) Две камеры и плоскости с изображениями с указанием терминологии эпиполярной геометрии. \relax }}{28}{figure.caption.11}\protected@file@percent }
\newlabel{fig:epipolar}{{1.11}{28}{Эпиполярная геометрия. (а) Эпиполярная плоскость определяется точкой $ P $ и двумя центрами камеры $ C_1 $ и $ C_2 $. (б) Две камеры и плоскости с изображениями с указанием терминологии эпиполярной геометрии. \relax }{figure.caption.11}{}}
\@writefile{toc}{\contentsline {subsubsection}{\numberline {1.5.1}Эпиполярная геометрия}{28}{subsubsection.1.5.1}\protected@file@percent }
\@writefile{lof}{\contentsline {figure}{\numberline {1.12}{\ignorespaces  Два вида сцены с 4 наложенными эпиполярными линиями.  \relax }}{29}{figure.caption.12}\protected@file@percent }
\newlabel{fig:epipolar_line}{{1.12}{29}{Два вида сцены с 4 наложенными эпиполярными линиями.  \relax }{figure.caption.12}{}}
\@writefile{toc}{\contentsline {subsubsection}{\numberline {1.5.2}Исправление изображения}{30}{subsubsection.1.5.2}\protected@file@percent }
\@writefile{lof}{\contentsline {figure}{\numberline {1.13}{\ignorespaces  Операция выпрямления изображения повторно проецирует два изображения $ I_1 $ и $ I_2 $ на общую синтетическую плоскость изображения $ I '$.  \relax }}{31}{figure.caption.13}\protected@file@percent }
\newlabel{fig:rectification}{{1.13}{31}{Операция выпрямления изображения повторно проецирует два изображения $ I_1 $ и $ I_2 $ на общую синтетическую плоскость изображения $ I '$.  \relax }{figure.caption.13}{}}
\newlabel{eq:h1}{{1.45}{31}{Исправление изображения}{equation.1.45}{}}
\@writefile{lof}{\contentsline {figure}{\numberline {1.14}{\ignorespaces  Трехмерная точка $ (X, Y, Z) ^ T $ проецируется на плоскости исходного изображения и выпрямленного изображения $ I_1 $ и $ I'_1 $ в позиции пикселя $ p_1 $ и $ p'_1 $.  \relax }}{32}{figure.caption.14}\protected@file@percent }
\newlabel{fig:pure_rotation}{{1.14}{32}{Трехмерная точка $ (X, Y, Z) ^ T $ проецируется на плоскости исходного изображения и выпрямленного изображения $ I_1 $ и $ I'_1 $ в позиции пикселя $ p_1 $ и $ p'_1 $.  \relax }{figure.caption.14}{}}
\@writefile{toc}{\contentsline {subsubsection}{\numberline {1.5.3}Расчет матрицы $ R '$}{32}{subsubsection.1.5.3}\protected@file@percent }
\@writefile{toc}{\contentsline {subsubsection}{\numberline {1.5.4}Расчет матрицы $ K '$}{33}{subsubsection.1.5.4}\protected@file@percent }
\@writefile{toc}{\contentsline {subsubsection}{\numberline {1.5.5}Расчет ограничительной рамки}{33}{subsubsection.1.5.5}\protected@file@percent }
\@writefile{lof}{\contentsline {figure}{\numberline {1.15}{\ignorespaces  Расчет ограничительной рамки выпрямленных изображений, полученных из плоского преобразования гомографии.  \relax }}{34}{figure.caption.15}\protected@file@percent }
\newlabel{fig:rectificationbb}{{1.15}{34}{Расчет ограничительной рамки выпрямленных изображений, полученных из плоского преобразования гомографии.  \relax }{figure.caption.15}{}}
\@writefile{toc}{\contentsline {subsubsection}{\numberline {1.5.6}Краткое изложение алгоритма}{34}{subsubsection.1.5.6}\protected@file@percent }
\@writefile{toc}{\contentsline {subsection}{\numberline {1.6}Нахождение особых точек}{34}{subsection.1.6}\protected@file@percent }
\@writefile{lof}{\contentsline {figure}{\numberline {1.16}{\ignorespaces  Два выпрямленных изображения с двумя наложенными горизонтальными эпиполярными линиями.  \relax }}{35}{figure.caption.16}\protected@file@percent }
\newlabel{fig:photo}{{1.16}{35}{Два выпрямленных изображения с двумя наложенными горизонтальными эпиполярными линиями.  \relax }{figure.caption.16}{}}
\@writefile{lof}{\contentsline {figure}{\numberline {1.17}{\ignorespaces На рисунке слева изображена пирамида гауссианов, а справа --- их разностей. Схематично показано, что каждая разность получается из двух соседних гауссианов, количество разностей на единицу меньше количества гауссианов, при переходе к следующей октаве размер изображений уменьшается вдвое\relax }}{36}{figure.caption.17}\protected@file@percent }
\newlabel{lit:sift1}{{1.17}{36}{На рисунке слева изображена пирамида гауссианов, а справа --- их разностей. Схематично показано, что каждая разность получается из двух соседних гауссианов, количество разностей на единицу меньше количества гауссианов, при переходе к следующей октаве размер изображений уменьшается вдвое\relax }{figure.caption.17}{}}
\@writefile{lof}{\contentsline {figure}{\numberline {1.18}{\ignorespaces В каждом изображении из пирамиды DoG ищутся точки локального экстремума. Каждая точка текущего изображения DoG сравнивается с её восьмью соседями и с девятью соседями в DoG, находящихся на уровень выше и ниже в пирамиде. Если эта точка больше (меньше) всех соседей, то она принимается за точку локального экстремума.\relax }}{37}{figure.caption.18}\protected@file@percent }
\newlabel{lit:sift2}{{1.18}{37}{В каждом изображении из пирамиды DoG ищутся точки локального экстремума. Каждая точка текущего изображения DoG сравнивается с её восьмью соседями и с девятью соседями в DoG, находящихся на уровень выше и ниже в пирамиде. Если эта точка больше (меньше) всех соседей, то она принимается за точку локального экстремума.\relax }{figure.caption.18}{}}
\@writefile{toc}{\contentsline {section}{\numberline {2}Специальная часть}{39}{section.2}\protected@file@percent }
\@writefile{toc}{\contentsline {subsection}{\numberline {2.1}Постановка задачи и функциональная схема системы}{39}{subsection.2.1}\protected@file@percent }
\newlabel{special:sec1}{{2.1}{39}{Постановка задачи и функциональная схема системы}{subsection.2.1}{}}
\@writefile{toc}{\contentsline {subsubsection}{\numberline {2.1.1}Содержательная постановка задачи}{39}{subsubsection.2.1.1}\protected@file@percent }
\@writefile{toc}{\contentsline {subsubsection}{\numberline {2.1.2}Математическая постановка задачи}{41}{subsubsection.2.1.2}\protected@file@percent }
\@writefile{toc}{\contentsline {subsubsection}{\numberline {2.1.3}Функциональная схема системы}{42}{subsubsection.2.1.3}\protected@file@percent }
\@writefile{lof}{\contentsline {figure}{\numberline {2.1}{\ignorespaces Функциональная схема имитационной модели\relax }}{42}{figure.caption.19}\protected@file@percent }
\newlabel{special:structure}{{2.1}{42}{Функциональная схема имитационной модели\relax }{figure.caption.19}{}}
\@writefile{toc}{\contentsline {subsection}{\numberline {2.2}Алгоритм восстановления структуры объекта по данным из видеопотока}{44}{subsection.2.2}\protected@file@percent }
\@writefile{lof}{\contentsline {figure}{\numberline {2.2}{\ignorespaces Схема работы алгоритма\relax }}{44}{figure.caption.20}\protected@file@percent }
\newlabel{special:scheme}{{2.2}{44}{Схема работы алгоритма\relax }{figure.caption.20}{}}
\@writefile{toc}{\contentsline {subsubsection}{\numberline {2.2.1}Поиск соответсвий}{44}{subsubsection.2.2.1}\protected@file@percent }
\@writefile{lof}{\contentsline {figure}{\numberline {2.3}{\ignorespaces Работа детектора ключевых точек\relax }}{44}{figure.caption.21}\protected@file@percent }
\newlabel{special:extractor}{{2.3}{44}{Работа детектора ключевых точек\relax }{figure.caption.21}{}}
\@writefile{toc}{\contentsline {subsubsection}{\numberline {2.2.2}Извлечение признаков.}{45}{subsubsection.2.2.2}\protected@file@percent }
\@writefile{lof}{\contentsline {figure}{\numberline {2.4}{\ignorespaces Сопоставление точек\relax }}{45}{figure.caption.22}\protected@file@percent }
\newlabel{special:matcher}{{2.4}{45}{Сопоставление точек\relax }{figure.caption.22}{}}
\@writefile{toc}{\contentsline {subsubsection}{\numberline {2.2.3}Сопоставление.}{45}{subsubsection.2.2.3}\protected@file@percent }
\@writefile{lof}{\contentsline {figure}{\numberline {2.5}{\ignorespaces Фильрация точек с использованием эпиполярного ограничения. $C$ и $C'$ — оптические центры камер. Если точка $P$ на первом изображении спроектирована в $m$. Тогда на другом изображении её проекцию нужно искать на прямой $l'm$. \relax }}{46}{figure.caption.23}\protected@file@percent }
\newlabel{special:epipolar}{{2.5}{46}{Фильрация точек с использованием эпиполярного ограничения. $C$ и $C'$ — оптические центры камер. Если точка $P$ на первом изображении спроектирована в $m$. Тогда на другом изображении её проекцию нужно искать на прямой $l'm$. \relax }{figure.caption.23}{}}
\@writefile{toc}{\contentsline {subsubsection}{\numberline {2.2.4}Геометрическая проверка.}{47}{subsubsection.2.2.4}\protected@file@percent }
\@writefile{toc}{\contentsline {subsubsection}{\numberline {2.2.5}Инкрементальная реконструкция}{47}{subsubsection.2.2.5}\protected@file@percent }
\@writefile{toc}{\contentsline {subsubsection}{\numberline {2.2.6}Инициализация реконструкции.}{48}{subsubsection.2.2.6}\protected@file@percent }
\@writefile{lof}{\contentsline {figure}{\numberline {2.6}{\ignorespaces Регистрация изображений в 3д пространстве\relax }}{48}{figure.caption.24}\protected@file@percent }
\newlabel{special:matcher}{{2.6}{48}{Регистрация изображений в 3д пространстве\relax }{figure.caption.24}{}}
\@writefile{toc}{\contentsline {subsubsection}{\numberline {2.2.7}Регистрация изображений.}{49}{subsubsection.2.2.7}\protected@file@percent }
\newlabel{1}{{2.2.7}{49}{Регистрация изображений}{equation.2.1}{}}
\newlabel{2}{{2.2.7}{49}{Регистрация изображений}{equation.2.2}{}}
\newlabel{3}{{2.2.7}{49}{Регистрация изображений}{equation.2.3}{}}
\newlabel{4}{{2.2.7}{50}{Регистрация изображений}{equation.2.4}{}}
\@writefile{lof}{\contentsline {figure}{\numberline {2.7}{\ignorespaces Камера и мировые системы координат, измерения изображений ($ x $), векторы направления луча ($ K^{-1} x $) и трехмерные точки в мировой системе координат ($ X $) и в системе координат камеры ($\alpha K^{-1}x_1$).\relax }}{50}{figure.caption.25}\protected@file@percent }
\newlabel{lit:pnp}{{2.7}{50}{Камера и мировые системы координат, измерения изображений ($ x $), векторы направления луча ($ K^{-1} x $) и трехмерные точки в мировой системе координат ($ X $) и в системе координат камеры ($\alpha K^{-1}x_1$).\relax }{figure.caption.25}{}}
\newlabel{5}{{2.2.7}{50}{Регистрация изображений}{equation.2.5}{}}
\newlabel{6}{{2.2.7}{51}{Регистрация изображений}{equation.2.6}{}}
\newlabel{7}{{2.2.7}{51}{Регистрация изображений}{equation.2.7}{}}
\@writefile{toc}{\contentsline {subsubsection}{\numberline {2.2.8}Триангуляция.}{51}{subsubsection.2.2.8}\protected@file@percent }
\@writefile{lof}{\contentsline {figure}{\numberline {2.8}{\ignorespaces Групповая корректировка\relax }}{52}{figure.caption.26}\protected@file@percent }
\newlabel{special:ba}{{2.8}{52}{Групповая корректировка\relax }{figure.caption.26}{}}
\@writefile{toc}{\contentsline {subsubsection}{\numberline {2.2.9}Групповая корректировка.}{52}{subsubsection.2.2.9}\protected@file@percent }
