# Fdb version 3
["xdvipdfmx"] 1560104263 "tmp/thesis.xdv" "tmp/thesis.pdf" "tmp/thesis" 1560104286
  "tmp/thesis.xdv" 1560104263 657236 fb0f38de6ffc80842e148be1bb830121 "xelatex"
  (generated)
  "tmp/thesis.pdf"
["xelatex"] 1560104260 "main.tex" "tmp/thesis.xdv" "tmp/thesis" 1560104286
  "/dev/null" 1560003358 0 d41d8cd98f00b204e9800998ecf8427e ""
  "/usr/local/texlive/2019/texmf-dist/fonts/map/fontname/texfonts.map" 1511824771 3332 103109f5612ad95229751940c61aada0 ""
  "/usr/local/texlive/2019/texmf-dist/fonts/tfm/adobe/zapfding/pzdr.tfm" 1136768653 1528 f853c4d1b4e0550255e02831fdc8496f ""
  "/usr/local/texlive/2019/texmf-dist/fonts/tfm/public/amsfonts/cmextra/cmex7.tfm" 1246382020 1004 54797486969f23fa377b128694d548df ""
  "/usr/local/texlive/2019/texmf-dist/fonts/tfm/public/amsfonts/symbols/msam10.tfm" 1246382020 916 f87d7c45f9c908e672703b83b72241a3 ""
  "/usr/local/texlive/2019/texmf-dist/fonts/tfm/public/amsfonts/symbols/msam7.tfm" 1246382020 928 2dc8d444221b7a635bb58038579b861a ""
  "/usr/local/texlive/2019/texmf-dist/fonts/tfm/public/amsfonts/symbols/msbm10.tfm" 1246382020 908 2921f8a10601f252058503cc6570e581 ""
  "/usr/local/texlive/2019/texmf-dist/fonts/tfm/public/amsfonts/symbols/msbm7.tfm" 1246382020 940 228d6584342e91276bf566bcf9716b83 ""
  "/usr/local/texlive/2019/texmf-dist/fonts/tfm/public/cm/cmex10.tfm" 1136768653 992 662f679a0b3d2d53c1b94050fdaa3f50 ""
  "/usr/local/texlive/2019/texmf-dist/fonts/tfm/public/cm/cmmi12.tfm" 1136768653 1524 4414a8315f39513458b80dfc63bff03a ""
  "/usr/local/texlive/2019/texmf-dist/fonts/tfm/public/cm/cmr10.tfm" 1136768653 1296 45809c5a464d5f32c8f98ba97c1bb47f ""
  "/usr/local/texlive/2019/texmf-dist/fonts/tfm/public/cm/cmr12.tfm" 1136768653 1288 655e228510b4c2a1abe905c368440826 ""
  "/usr/local/texlive/2019/texmf-dist/fonts/tfm/public/cm/cmsy10.tfm" 1136768653 1124 6c73e740cf17375f03eec0ee63599741 ""
  "/usr/local/texlive/2019/texmf-dist/tex/generic/ifxetex/ifxetex.sty" 1284331290 1458 43ab4710dc82f3edeabecd0d099626b2 ""
  "/usr/local/texlive/2019/texmf-dist/tex/generic/oberdiek/atbegshi.sty" 1465595255 24580 144573175d90c8e36676f97ae1d11ec2 ""
  "/usr/local/texlive/2019/texmf-dist/tex/generic/oberdiek/gettitlestring.sty" 1463608860 8237 3b62ef1f7e2c23a328c814b3893bc11f ""
  "/usr/local/texlive/2019/texmf-dist/tex/generic/oberdiek/hobsub-generic.sty" 1536701967 185392 b99a6d53180e04300c35e18725f31231 ""
  "/usr/local/texlive/2019/texmf-dist/tex/generic/oberdiek/hobsub-hyperref.sty" 1465595255 70864 bcd5b216757bd619ae692a151d90085d ""
  "/usr/local/texlive/2019/texmf-dist/tex/generic/oberdiek/ifluatex.sty" 1463608860 7324 2310d1247db0114eb4726807c8837a0e ""
  "/usr/local/texlive/2019/texmf-dist/tex/generic/oberdiek/ifpdf.sty" 1536443070 1300 96620a7d94bc0ceb261d968770ce8315 ""
  "/usr/local/texlive/2019/texmf-dist/tex/generic/oberdiek/infwarerr.sty" 1463608860 8253 473e0e41f9adadb1977e8631b8f72ea6 ""
  "/usr/local/texlive/2019/texmf-dist/tex/generic/oberdiek/ltxcmds.sty" 1463608860 18425 5b3c0c59d76fac78978b5558e83c1f36 ""
  "/usr/local/texlive/2019/texmf-dist/tex/generic/oberdiek/se-ascii-print.def" 1463608860 3154 688330b6ca706e672a9310fc1a549476 ""
  "/usr/local/texlive/2019/texmf-dist/tex/generic/oberdiek/stringenc.sty" 1463608860 21411 4c6135fd98dd4f5499becbfc9a323deb ""
  "/usr/local/texlive/2019/texmf-dist/tex/generic/unicode-data/CaseFolding.txt" 1552169639 82624 a794be08c28f90853003c9bdf8826509 ""
  "/usr/local/texlive/2019/texmf-dist/tex/generic/unicode-data/SpecialCasing.txt" 1552169639 16830 7d68383da670926f2386563b40b4bfae ""
  "/usr/local/texlive/2019/texmf-dist/tex/generic/unicode-data/UnicodeData.txt" 1552169639 1797715 6221effa1dd15524745a467f7366233d ""
  "/usr/local/texlive/2019/texmf-dist/tex/generic/xkeyval/xkeyval.tex" 1417732693 19231 26434a5656c684f5ffb1f26f98006baa ""
  "/usr/local/texlive/2019/texmf-dist/tex/generic/xkeyval/xkvutils.tex" 1403829539 7677 6f5ce7c1124cad7ec57d05b2562bd8fe ""
  "/usr/local/texlive/2019/texmf-dist/tex/latex/amsfonts/amsfonts.sty" 1359763108 5949 3f3fd50a8cc94c3d4cbf4fc66cd3df1c ""
  "/usr/local/texlive/2019/texmf-dist/tex/latex/amsfonts/amssymb.sty" 1359763108 13829 94730e64147574077f8ecfea9bb69af4 ""
  "/usr/local/texlive/2019/texmf-dist/tex/latex/amsfonts/umsa.fd" 1359763108 961 6518c6525a34feb5e8250ffa91731cff ""
  "/usr/local/texlive/2019/texmf-dist/tex/latex/amsfonts/umsb.fd" 1359763108 961 d02606146ba5601b5645f987c92e6193 ""
  "/usr/local/texlive/2019/texmf-dist/tex/latex/amsmath/amsbsy.sty" 1523134290 2211 ca7ce284ab93c8eecdc6029dc5ccbd73 ""
  "/usr/local/texlive/2019/texmf-dist/tex/latex/amsmath/amsgen.sty" 1523134290 4161 7f6eb9092061a11f87d08ed13515b48d ""
  "/usr/local/texlive/2019/texmf-dist/tex/latex/amsmath/amsmath.sty" 1544567569 85093 77cfa18ddbae4d9b74ade33d843686d3 ""
  "/usr/local/texlive/2019/texmf-dist/tex/latex/amsmath/amsopn.sty" 1523134290 4116 32e6abd27229755a83a8b7f18e583890 ""
  "/usr/local/texlive/2019/texmf-dist/tex/latex/amsmath/amstext.sty" 1523134290 2432 8ff93b1137020e8f21930562a874ae66 ""
  "/usr/local/texlive/2019/texmf-dist/tex/latex/base/exscale.sty" 1544567569 2584 9cad556952e74a34ad4a9cebab2ee8aa ""
  "/usr/local/texlive/2019/texmf-dist/tex/latex/base/fontenc.sty" 1544567569 4573 e9e01f5b11821a77b916dad378cb86b8 ""
  "/usr/local/texlive/2019/texmf-dist/tex/latex/base/ifthen.sty" 1523050425 5161 c004ea5a189d4bdcf42e86754ad75a58 ""
  "/usr/local/texlive/2019/texmf-dist/tex/latex/base/tuenc.def" 1544567569 27445 ec1f19bc4e214ac5c829242794cff400 ""
  "/usr/local/texlive/2019/texmf-dist/tex/latex/caption/caption.sty" 1539032178 68576 86bbc6bd5a409b3c353fccc1a815fa5b ""
  "/usr/local/texlive/2019/texmf-dist/tex/latex/caption/caption3.sty" 1538606650 68510 943558eecf41da4e76fc614fd7f5deff ""
  "/usr/local/texlive/2019/texmf-dist/tex/latex/chngcntr/chngcntr.sty" 1525297854 4336 84bc4a8edb126e69abec1a67dc0c36cf ""
  "/usr/local/texlive/2019/texmf-dist/tex/latex/enumitem/enumitem.sty" 1549316214 51603 ccc7546d1e15809a779ade2c44d54044 ""
  "/usr/local/texlive/2019/texmf-dist/tex/latex/eso-pic/eso-pic.sty" 1526160256 11991 c1669f88e13f8bb6243df144e456b477 ""
  "/usr/local/texlive/2019/texmf-dist/tex/latex/etoolbox/etoolbox.sty" 1534713891 43865 f83cc2fa3767abdb988c7d2cd17c02bf ""
  "/usr/local/texlive/2019/texmf-dist/tex/latex/extsizes/extarticle.cls" 1137110130 20602 3112294ba237d94ce4a1502cfef3594f ""
  "/usr/local/texlive/2019/texmf-dist/tex/latex/extsizes/size14.clo" 1137110130 6214 cc6d832fdd2fc5f4a20ee1a002f45d0f ""
  "/usr/local/texlive/2019/texmf-dist/tex/latex/fancyhdr/fancyhdr.sty" 1548974385 11128 a53805799bebfed6358fc1658a18e41f ""
  "/usr/local/texlive/2019/texmf-dist/tex/latex/float/float.sty" 1137110151 6749 16d2656a1984957e674b149555f1ea1d ""
  "/usr/local/texlive/2019/texmf-dist/tex/latex/fontspec/fontspec-xetex.sty" 1552596970 162782 92e494a761faab10e02c6d41ddd6c0b3 ""
  "/usr/local/texlive/2019/texmf-dist/tex/latex/fontspec/fontspec.cfg" 1532898934 549 c4adac819276241fea8eb79c5ab7b99e ""
  "/usr/local/texlive/2019/texmf-dist/tex/latex/fontspec/fontspec.sty" 1552596970 1655 57753047adce10eb33bdfbe8a8047704 ""
  "/usr/local/texlive/2019/texmf-dist/tex/latex/geometry/geometry.sty" 1525727744 41645 0653033a985e06c69a2a9cea9a95e31a ""
  "/usr/local/texlive/2019/texmf-dist/tex/latex/graphics-cfg/color.cfg" 1459978653 1213 620bba36b25224fa9b7e1ccb4ecb76fd ""
  "/usr/local/texlive/2019/texmf-dist/tex/latex/graphics-cfg/graphics.cfg" 1465944070 1224 978390e9c2234eab29404bc21b268d1e ""
  "/usr/local/texlive/2019/texmf-dist/tex/latex/graphics-def/xetex.def" 1498427493 12707 672c620846df0fecf0a7a99fed83566d ""
  "/usr/local/texlive/2019/texmf-dist/tex/latex/graphics/graphics.sty" 1523134385 15272 5a97061616e0c8b2aa79c6615ff769f4 ""
  "/usr/local/texlive/2019/texmf-dist/tex/latex/graphics/graphicx.sty" 1523134385 9063 d0a305975932762117cd1f06a582f896 ""
  "/usr/local/texlive/2019/texmf-dist/tex/latex/graphics/keyval.sty" 1523134385 2591 6404d0c7d28505fb38ce0d86c2e28ae7 ""
  "/usr/local/texlive/2019/texmf-dist/tex/latex/graphics/lscape.sty" 1523134385 1754 456e1ddf48323a62f9e0fbc379de63a3 ""
  "/usr/local/texlive/2019/texmf-dist/tex/latex/graphics/trig.sty" 1523134385 3977 cb9221976ed8a183afad65b59aa8629a ""
  "/usr/local/texlive/2019/texmf-dist/tex/latex/hyperref/hxetex.def" 1543704539 45459 2c38fd64461aafb0b5c6f3edf5c83b8c ""
  "/usr/local/texlive/2019/texmf-dist/tex/latex/hyperref/hyperref.sty" 1543704539 236074 d994150943d35d6af0d586a60cc78dd1 ""
  "/usr/local/texlive/2019/texmf-dist/tex/latex/hyperref/nameref.sty" 1465687530 12949 81e4e808884a8f0e276b69410e234656 ""
  "/usr/local/texlive/2019/texmf-dist/tex/latex/hyperref/pd1enc.def" 1543704539 14098 b4e1ecab4699a0341b8e1349e4c53fb1 ""
  "/usr/local/texlive/2019/texmf-dist/tex/latex/hyperref/puenc.def" 1543704539 122411 537c1e113664b098b6572dbc27a726af ""
  "/usr/local/texlive/2019/texmf-dist/tex/latex/l3kernel/expl3-code.tex" 1559078676 994975 20bb6dd0929134402f567d0cd34683e5 ""
  "/usr/local/texlive/2019/texmf-dist/tex/latex/l3kernel/expl3.sty" 1559078676 9894 ad20e36e6964ac171fa7b5699358fec4 ""
  "/usr/local/texlive/2019/texmf-dist/tex/latex/l3kernel/l3xdvipdfmx.def" 1559078676 22714 94462fc1fbff4bd36f0c3379fc3bf9af ""
  "/usr/local/texlive/2019/texmf-dist/tex/latex/l3packages/xparse/xparse.sty" 1559078676 81639 5a9d5d61b6a43f3c52fe010ab68ec431 ""
  "/usr/local/texlive/2019/texmf-dist/tex/latex/latexconfig/hyperref.cfg" 1254097189 235 6031e5765137be07eed51a510b2b8fb7 ""
  "/usr/local/texlive/2019/texmf-dist/tex/latex/listings/listings.cfg" 1551393442 1830 8ebf24b6078970a5f7b81814f96ef6bc ""
  "/usr/local/texlive/2019/texmf-dist/tex/latex/listings/listings.sty" 1551393442 80450 ccf6250c881393368e27f23b483782ab ""
  "/usr/local/texlive/2019/texmf-dist/tex/latex/listings/lstmisc.sty" 1551393442 77022 9205b75844150972cc4077e78ec26b25 ""
  "/usr/local/texlive/2019/texmf-dist/tex/latex/makecmds/makecmds.sty" 1252026102 2296 b097750ac8010251101d5bbe1da4d1be ""
  "/usr/local/texlive/2019/texmf-dist/tex/latex/metalogo/metalogo.sty" 1275236382 7002 8fdf43c505e48e13c2cea042a8a8671c ""
  "/usr/local/texlive/2019/texmf-dist/tex/latex/multirow/multirow.sty" 1546383059 5164 bcc9f9eb87b893f14f0e34388a369d7e ""
  "/usr/local/texlive/2019/texmf-dist/tex/latex/oberdiek/auxhook.sty" 1463608860 3834 4363110eb0ef1eb2b71c8fcbcdb6c357 ""
  "/usr/local/texlive/2019/texmf-dist/tex/latex/oberdiek/kvoptions.sty" 1463608860 22417 1d9df1eb66848aa31b18a593099cf45c ""
  "/usr/local/texlive/2019/texmf-dist/tex/latex/oberdiek/pdflscape.sty" 1463348357 6688 c84de1eae6cda82865a6d3d09e339ec9 ""
  "/usr/local/texlive/2019/texmf-dist/tex/latex/oberdiek/rerunfilecheck.sty" 1463608860 9581 023642318cef9f4677efe364de1e2a27 ""
  "/usr/local/texlive/2019/texmf-dist/tex/latex/pdfpages/pdfpages.sty" 1509485055 52989 80e784f009ef46fd8220535bd14a7d82 ""
  "/usr/local/texlive/2019/texmf-dist/tex/latex/pdfpages/ppxetex.def" 1509485055 6351 a9c8e662379225f9b4c692a68126f1ee ""
  "/usr/local/texlive/2019/texmf-dist/tex/latex/polyglossia/babelsh.def" 1372456609 15474 8b33d69304194021c0a11caa1db6eb3d ""
  "/usr/local/texlive/2019/texmf-dist/tex/latex/polyglossia/gloss-russian.ldf" 1554498741 9218 2cdf8e1fb27385e9c33f35b6e33fb9ec ""
  "/usr/local/texlive/2019/texmf-dist/tex/latex/polyglossia/polyglossia.sty" 1554498741 31013 95313e3b020387f8f2b833fca14e6463 ""
  "/usr/local/texlive/2019/texmf-dist/tex/latex/realscripts/realscripts.sty" 1455402752 4558 41199fa3acb4eb54622019e50ccfb65d ""
  "/usr/local/texlive/2019/texmf-dist/tex/latex/subfiles/subfiles.sty" 1533070489 1538 6817ef078f4e71da45343da18fa8c42f ""
  "/usr/local/texlive/2019/texmf-dist/tex/latex/textcase/textcase.sty" 1137110938 2022 79a2c3efd954daff1698214872b6ca46 ""
  "/usr/local/texlive/2019/texmf-dist/tex/latex/tipa/t3cmr.fd" 1137110956 1257 fd5b1c2f0106f9cf12cdb2ff961987c5 ""
  "/usr/local/texlive/2019/texmf-dist/tex/latex/tipa/t3enc.def" 1137110956 26483 c461a68c34040cb0d96c43e86c012a6d ""
  "/usr/local/texlive/2019/texmf-dist/tex/latex/titlesec/block.tss" 1458858524 1410 f5fabf556740993e1391ddd9561033c8 ""
  "/usr/local/texlive/2019/texmf-dist/tex/latex/titlesec/titlesec.sty" 1458858524 37387 afa86533e532701faf233f3f592c61e0 ""
  "/usr/local/texlive/2019/texmf-dist/tex/latex/tocloft/tocloft.sty" 1504229650 35908 cf004ee7afad1af9a1182e95b5c31f8f ""
  "/usr/local/texlive/2019/texmf-dist/tex/latex/tools/calc.sty" 1523050425 10212 357072c1d20578a30d6387d8a22e72ab ""
  "/usr/local/texlive/2019/texmf-dist/tex/latex/tools/enumerate.sty" 1523050425 3465 3f63ff30365d38132fb55859c9cabd4d ""
  "/usr/local/texlive/2019/texmf-dist/tex/latex/tools/indentfirst.sty" 1523050425 1615 dba466e323af4fcd4a6acb87444d96c3 ""
  "/usr/local/texlive/2019/texmf-dist/tex/latex/tools/verbatim.sty" 1523050425 7262 cf84171354dfa1855684c0946ff000f1 ""
  "/usr/local/texlive/2019/texmf-dist/tex/latex/url/url.sty" 1388531844 12796 8edb7d69a20b857904dd0ea757c14ec9 ""
  "/usr/local/texlive/2019/texmf-dist/tex/latex/xcolor/xcolor.sty" 1463002160 55589 34128738f682d033422ca125f82e5d62 ""
  "/usr/local/texlive/2019/texmf-dist/tex/latex/xkeyval/xkeyval.sty" 1417732693 4962 9c1069474ff71dbc47d5006555e352d3 ""
  "/usr/local/texlive/2019/texmf-dist/tex/xelatex/xltxtra/xltxtra.sty" 1546294187 5686 8a29af4ad9d707b5280738995d050842 ""
  "/usr/local/texlive/2019/texmf-dist/tex/xelatex/xunicode/xunicode.sty" 1315783907 205722 8027ed7ab2230086d647802c25f3ee42 ""
  "/usr/local/texlive/2019/texmf-dist/web2c/texmf.cnf" 1557092114 35484 cb1661360667bf4db662a8895053b554 ""
  "/usr/local/texlive/2019/texmf-var/web2c/xetex/xelatex.fmt" 1559335185 3752857 4bc91468145bacecbb718f2eed22be56 ""
  "/usr/local/texlive/2019/texmf.cnf" 1559335111 455 5b996dcaa0eb4ef14a83b026bc0a008c ""
  "images/literature/camcoord.png" 1559759849 15017 cc7d98c459fb6a80f813e12b6bad0eb0 ""
  "images/literature/chess.png" 1560094937 1125747 1bc349071e6263be8969220ec523fc89 ""
  "images/literature/chess_dist.png" 1559991987 896029 2ea0b12411405df9d78f5af9cf3f3e4b ""
  "images/literature/chess_undist.png" 1559992001 852844 2c027f12bfe41759210cf46a53de6293 ""
  "images/literature/epipolar1.png" 1560066123 33208 7483eafa35bffd063fc5270ab1664e53 ""
  "images/literature/epipolar2.png" 1560066130 55960 e3bfd91d3545a49113ba7c704b7d3d24 ""
  "images/literature/epipolar_line1.png" 1560066549 1174374 93df69d4aa799df6765dec04707fe975 ""
  "images/literature/epipolar_line2.png" 1560066553 1213654 af2ff1c8e2bbc288b2c0a8608f2e09fe ""
  "images/literature/extrinsic_param.png" 1559992446 27291 c9e1a5f8f4b1702251f95622f9338078 ""
  "images/literature/nonsquare.png" 1559759864 15642 2811a5a2533e359474b2e6578887c2c8 ""
  "images/literature/photo1.png" 1560080511 331377 ecfdf118ce8c18d81b49603c0ff082c2 ""
  "images/literature/photo2.png" 1560080525 357999 aa22bd3872cf6abbbd6166e67da57ab0 ""
  "images/literature/pinholecam1.png" 1559757341 38509 fdff4ddd3a33fd8b57eff410bea88510 ""
  "images/literature/pnp.png" 1556157039 35271 af7696178d384a3326a1012374c8689d ""
  "images/literature/pure_rotation.png" 1560069003 24268 982b02f7d7f3f3f526a87015d884118d ""
  "images/literature/rad.png" 1559763838 173814 4a2dd8b09478096a0700afcb4a89a261 ""
  "images/literature/rectification1.png" 1560068309 36588 0f0932ba65b2fb4999fea7d202e07e80 ""
  "images/literature/rectification2.png" 1560068314 32432 4a54920dc19eafb202f9da2fc618a546 ""
  "images/literature/rectification_BBox.png" 1560079427 34605 0ff6b79101b59f724a58e66066e5553c ""
  "images/literature/traintrack.png" 1559750046 118064 bce2a1b617d95e39ab844d7547088b69 ""
  "images/literature/unrad.png" 1559763805 102656 f2efeb3bfeda914ea0556d15e4218c5f ""
  "images/special/ba.png" 1556147850 19768 ef5c307c1f3de2c47f251629aea609e1 ""
  "images/special/epipolar.png" 1556146894 21006 4049fde9665ef5a628b443080a5936e4 ""
  "images/special/feature_extraction.jpeg" 1556140047 45641 6faa1a464a5b7d528b40c0e1f3a24c40 ""
  "images/special/matching.png" 1556142536 5367688 dafc63e3e9fee19d66c5884724ecbbe0 ""
  "images/special/pnp.png" 1556145758 20951 f0bb08cf542b6c80671254fac3f0e1c2 ""
  "images/special/scheme.png" 1556179938 208780 0eb53737c1e3fcc59ea3478c957aac0d ""
  "inc/0-intro.tex" 1559600469 4216 bfc7e019993bd236f5609d5f9a6e41f7 ""
  "inc/1-literature.tex" 1559600012 184 ca2296ca43a3227f5da4379d1cf760ac ""
  "inc/1/1-0-all.tex" 1560101885 137810 fe343c2a79685e626d65574e7dc3cfc1 ""
  "inc/1/pics/sift1.png" 1555989268 91789 bee458a039c578c9f775cedfb2d7c4e5 ""
  "inc/1/pics/sift2.png" 1555989279 26774 ded5e82bf5bac4358918a883938737ff ""
  "inc/2-special.tex" 1559600764 477 fa09554bd8de822ca19eb536ca97c2eb ""
  "inc/2/2-1-pz.tex" 1560102611 8675 d26c37afacbb80e52d7c2c826558132c ""
  "inc/2/2-2-algorithm.tex" 1560103102 26059 bd83f6defa498fa7a3fb31abfe526465 ""
  "inc/2/2-3-software.tex" 1555917059 0 d41d8cd98f00b204e9800998ecf8427e ""
  "inc/2/pics/structure.pdf" 1555928583 33277 11926cc695fce461c747ca2b702bb417 ""
  "inc/preamble.tex" 1556182557 8592 36f158297482cefff009de3911d83eda ""
  "main.tex" 1560104245 1130 36e5372d2716967292df8c276d111ab4 ""
  "tmp/thesis.aux" 1560104263 26655 02299bd1677f137ef2c020c6373cbad2 "xelatex"
  "tmp/thesis.out" 1560104263 4523 079592843c384a6d8b960d3b4b9c6d73 "xelatex"
  "tmp/thesis.toc" 1560104263 5304 39613f4e21807eada479ef08841aadfe "xelatex"
  (generated)
  "tmp/thesis.toc"
  "tmp/thesis.log"
  "tmp/thesis.out"
  "tmp/thesis.aux"
  "tmp/thesis.xdv"
