PWD /home/oberon/thesis/thesis-sfm
INPUT /usr/local/texlive/2019/texmf.cnf
INPUT /usr/local/texlive/2019/texmf-dist/web2c/texmf.cnf
INPUT /usr/local/texlive/2019/texmf-var/web2c/xetex/xelatex.fmt
INPUT main.tex
OUTPUT tmp/thesis.log
INPUT /usr/local/texlive/2019/texmf-dist/tex/latex/extsizes/extarticle.cls
INPUT /usr/local/texlive/2019/texmf-dist/tex/latex/extsizes/extarticle.cls
INPUT /usr/local/texlive/2019/texmf-dist/tex/latex/extsizes/size14.clo
INPUT /usr/local/texlive/2019/texmf-dist/tex/latex/extsizes/size14.clo
INPUT /usr/local/texlive/2019/texmf-dist/tex/latex/base/exscale.sty
INPUT /usr/local/texlive/2019/texmf-dist/tex/latex/base/exscale.sty
INPUT inc/preamble.tex
INPUT inc/preamble.tex
INPUT /usr/local/texlive/2019/texmf-dist/tex/latex/fontspec/fontspec.sty
INPUT /usr/local/texlive/2019/texmf-dist/tex/latex/fontspec/fontspec.sty
INPUT /usr/local/texlive/2019/texmf-dist/tex/latex/l3packages/xparse/xparse.sty
INPUT /usr/local/texlive/2019/texmf-dist/tex/latex/l3packages/xparse/xparse.sty
INPUT /usr/local/texlive/2019/texmf-dist/tex/latex/l3kernel/expl3.sty
INPUT /usr/local/texlive/2019/texmf-dist/tex/latex/l3kernel/expl3.sty
INPUT /usr/local/texlive/2019/texmf-dist/tex/latex/l3kernel/expl3-code.tex
INPUT /usr/local/texlive/2019/texmf-dist/tex/latex/l3kernel/expl3-code.tex
INPUT /usr/local/texlive/2019/texmf-dist/fonts/map/fontname/texfonts.map
INPUT /usr/local/texlive/2019/texmf-dist/fonts/tfm/public/cm/cmr10.tfm
INPUT /usr/local/texlive/2019/texmf-dist/fonts/tfm/public/cm/cmr10.tfm
INPUT /usr/local/texlive/2019/texmf-dist/fonts/tfm/public/cm/cmr10.tfm
INPUT /usr/local/texlive/2019/texmf-dist/fonts/tfm/public/cm/cmr10.tfm
INPUT /usr/local/texlive/2019/texmf-dist/fonts/tfm/public/cm/cmr10.tfm
INPUT /usr/local/texlive/2019/texmf-dist/fonts/tfm/public/cm/cmr10.tfm
INPUT /usr/local/texlive/2019/texmf-dist/fonts/tfm/public/cm/cmr10.tfm
INPUT /usr/local/texlive/2019/texmf-dist/fonts/tfm/public/cm/cmr10.tfm
INPUT /usr/local/texlive/2019/texmf-dist/fonts/tfm/public/cm/cmr10.tfm
INPUT /usr/local/texlive/2019/texmf-dist/fonts/tfm/public/cm/cmr10.tfm
INPUT /usr/local/texlive/2019/texmf-dist/tex/generic/unicode-data/UnicodeData.txt
INPUT /usr/local/texlive/2019/texmf-dist/tex/generic/unicode-data/UnicodeData.txt
INPUT /usr/local/texlive/2019/texmf-dist/tex/generic/unicode-data/CaseFolding.txt
INPUT /usr/local/texlive/2019/texmf-dist/tex/generic/unicode-data/CaseFolding.txt
INPUT /usr/local/texlive/2019/texmf-dist/tex/generic/unicode-data/SpecialCasing.txt
INPUT /usr/local/texlive/2019/texmf-dist/tex/generic/unicode-data/SpecialCasing.txt
INPUT /dev/null
INPUT /usr/local/texlive/2019/texmf-dist/tex/latex/l3kernel/l3xdvipdfmx.def
INPUT /usr/local/texlive/2019/texmf-dist/tex/latex/l3kernel/l3xdvipdfmx.def
INPUT /usr/local/texlive/2019/texmf-dist/tex/latex/fontspec/fontspec-xetex.sty
INPUT /usr/local/texlive/2019/texmf-dist/tex/latex/fontspec/fontspec-xetex.sty
INPUT /usr/local/texlive/2019/texmf-dist/tex/latex/base/tuenc.def
INPUT /usr/local/texlive/2019/texmf-dist/tex/latex/base/fontenc.sty
INPUT /usr/local/texlive/2019/texmf-dist/tex/latex/base/fontenc.sty
INPUT /usr/local/texlive/2019/texmf-dist/tex/latex/base/tuenc.def
INPUT /usr/local/texlive/2019/texmf-dist/tex/latex/base/tuenc.def
INPUT /usr/local/texlive/2019/texmf-dist/tex/latex/fontspec/fontspec.cfg
INPUT /usr/local/texlive/2019/texmf-dist/tex/latex/fontspec/fontspec.cfg
INPUT /usr/local/texlive/2019/texmf-dist/tex/xelatex/xunicode/xunicode.sty
INPUT /usr/local/texlive/2019/texmf-dist/tex/xelatex/xunicode/xunicode.sty
INPUT /usr/local/texlive/2019/texmf-dist/tex/latex/tipa/t3enc.def
INPUT /usr/local/texlive/2019/texmf-dist/tex/latex/graphics/graphicx.sty
INPUT /usr/local/texlive/2019/texmf-dist/tex/latex/graphics/graphicx.sty
INPUT /usr/local/texlive/2019/texmf-dist/tex/latex/graphics/keyval.sty
INPUT /usr/local/texlive/2019/texmf-dist/tex/latex/graphics/keyval.sty
INPUT /usr/local/texlive/2019/texmf-dist/tex/latex/graphics/graphics.sty
INPUT /usr/local/texlive/2019/texmf-dist/tex/latex/graphics/graphics.sty
INPUT /usr/local/texlive/2019/texmf-dist/tex/latex/graphics/trig.sty
INPUT /usr/local/texlive/2019/texmf-dist/tex/latex/graphics/trig.sty
INPUT /usr/local/texlive/2019/texmf-dist/tex/latex/graphics-cfg/graphics.cfg
INPUT /usr/local/texlive/2019/texmf-dist/tex/latex/graphics-cfg/graphics.cfg
INPUT /usr/local/texlive/2019/texmf-dist/tex/latex/graphics-def/xetex.def
INPUT /usr/local/texlive/2019/texmf-dist/tex/latex/graphics-def/xetex.def
INPUT /usr/local/texlive/2019/texmf-dist/tex/xelatex/xltxtra/xltxtra.sty
INPUT /usr/local/texlive/2019/texmf-dist/tex/xelatex/xltxtra/xltxtra.sty
INPUT /usr/local/texlive/2019/texmf-dist/tex/generic/oberdiek/ifluatex.sty
INPUT /usr/local/texlive/2019/texmf-dist/tex/generic/oberdiek/ifluatex.sty
INPUT /usr/local/texlive/2019/texmf-dist/tex/generic/ifxetex/ifxetex.sty
INPUT /usr/local/texlive/2019/texmf-dist/tex/generic/ifxetex/ifxetex.sty
INPUT /usr/local/texlive/2019/texmf-dist/tex/latex/realscripts/realscripts.sty
INPUT /usr/local/texlive/2019/texmf-dist/tex/latex/realscripts/realscripts.sty
INPUT /usr/local/texlive/2019/texmf-dist/tex/latex/metalogo/metalogo.sty
INPUT /usr/local/texlive/2019/texmf-dist/tex/latex/metalogo/metalogo.sty
INPUT /usr/local/texlive/2019/texmf-dist/tex/latex/pdfpages/pdfpages.sty
INPUT /usr/local/texlive/2019/texmf-dist/tex/latex/pdfpages/pdfpages.sty
INPUT /usr/local/texlive/2019/texmf-dist/tex/latex/base/ifthen.sty
INPUT /usr/local/texlive/2019/texmf-dist/tex/latex/base/ifthen.sty
INPUT /usr/local/texlive/2019/texmf-dist/tex/latex/tools/calc.sty
INPUT /usr/local/texlive/2019/texmf-dist/tex/latex/tools/calc.sty
INPUT /usr/local/texlive/2019/texmf-dist/tex/latex/eso-pic/eso-pic.sty
INPUT /usr/local/texlive/2019/texmf-dist/tex/latex/eso-pic/eso-pic.sty
INPUT /usr/local/texlive/2019/texmf-dist/tex/generic/oberdiek/atbegshi.sty
INPUT /usr/local/texlive/2019/texmf-dist/tex/generic/oberdiek/atbegshi.sty
INPUT /usr/local/texlive/2019/texmf-dist/tex/generic/oberdiek/infwarerr.sty
INPUT /usr/local/texlive/2019/texmf-dist/tex/generic/oberdiek/infwarerr.sty
INPUT /usr/local/texlive/2019/texmf-dist/tex/generic/oberdiek/ltxcmds.sty
INPUT /usr/local/texlive/2019/texmf-dist/tex/generic/oberdiek/ltxcmds.sty
INPUT /usr/local/texlive/2019/texmf-dist/tex/generic/oberdiek/ifpdf.sty
INPUT /usr/local/texlive/2019/texmf-dist/tex/generic/oberdiek/ifpdf.sty
INPUT /usr/local/texlive/2019/texmf-dist/tex/latex/xcolor/xcolor.sty
INPUT /usr/local/texlive/2019/texmf-dist/tex/latex/xcolor/xcolor.sty
INPUT /usr/local/texlive/2019/texmf-dist/tex/latex/xcolor/xcolor.sty
INPUT /usr/local/texlive/2019/texmf-dist/tex/latex/graphics-cfg/color.cfg
INPUT /usr/local/texlive/2019/texmf-dist/tex/latex/graphics-cfg/color.cfg
INPUT /usr/local/texlive/2019/texmf-dist/tex/latex/pdfpages/ppxetex.def
INPUT /usr/local/texlive/2019/texmf-dist/tex/latex/pdfpages/ppxetex.def
INPUT /usr/local/texlive/2019/texmf-dist/tex/latex/listings/listings.sty
INPUT /usr/local/texlive/2019/texmf-dist/tex/latex/listings/listings.sty
INPUT /usr/local/texlive/2019/texmf-dist/tex/latex/listings/lstmisc.sty
INPUT /usr/local/texlive/2019/texmf-dist/tex/latex/listings/lstmisc.sty
INPUT /usr/local/texlive/2019/texmf-dist/tex/latex/listings/listings.cfg
INPUT /usr/local/texlive/2019/texmf-dist/tex/latex/listings/listings.cfg
INPUT /usr/local/texlive/2019/texmf-dist/tex/latex/subfiles/subfiles.sty
INPUT /usr/local/texlive/2019/texmf-dist/tex/latex/subfiles/subfiles.sty
INPUT /usr/local/texlive/2019/texmf-dist/tex/latex/tools/verbatim.sty
INPUT /usr/local/texlive/2019/texmf-dist/tex/latex/tools/verbatim.sty
INPUT /usr/local/texlive/2019/texmf-dist/tex/latex/polyglossia/polyglossia.sty
INPUT /usr/local/texlive/2019/texmf-dist/tex/latex/polyglossia/polyglossia.sty
INPUT /usr/local/texlive/2019/texmf-dist/tex/latex/etoolbox/etoolbox.sty
INPUT /usr/local/texlive/2019/texmf-dist/tex/latex/etoolbox/etoolbox.sty
INPUT /usr/local/texlive/2019/texmf-dist/tex/latex/makecmds/makecmds.sty
INPUT /usr/local/texlive/2019/texmf-dist/tex/latex/makecmds/makecmds.sty
INPUT /usr/local/texlive/2019/texmf-dist/tex/latex/xkeyval/xkeyval.sty
INPUT /usr/local/texlive/2019/texmf-dist/tex/latex/xkeyval/xkeyval.sty
INPUT /usr/local/texlive/2019/texmf-dist/tex/generic/xkeyval/xkeyval.tex
INPUT /usr/local/texlive/2019/texmf-dist/tex/generic/xkeyval/xkvutils.tex
INPUT /usr/local/texlive/2019/texmf-dist/tex/latex/polyglossia/gloss-russian.ldf
INPUT /usr/local/texlive/2019/texmf-dist/tex/latex/polyglossia/gloss-russian.ldf
INPUT /usr/local/texlive/2019/texmf-dist/tex/latex/polyglossia/gloss-russian.ldf
INPUT /usr/local/texlive/2019/texmf-dist/tex/latex/polyglossia/babelsh.def
INPUT /usr/local/texlive/2019/texmf-dist/tex/latex/polyglossia/babelsh.def
INPUT /usr/local/texlive/2019/texmf-dist/tex/latex/amsfonts/amssymb.sty
INPUT /usr/local/texlive/2019/texmf-dist/tex/latex/amsfonts/amssymb.sty
INPUT /usr/local/texlive/2019/texmf-dist/tex/latex/amsfonts/amsfonts.sty
INPUT /usr/local/texlive/2019/texmf-dist/tex/latex/amsfonts/amsfonts.sty
INPUT /usr/local/texlive/2019/texmf-dist/tex/latex/amsmath/amsmath.sty
INPUT /usr/local/texlive/2019/texmf-dist/tex/latex/amsmath/amsmath.sty
INPUT /usr/local/texlive/2019/texmf-dist/tex/latex/amsmath/amstext.sty
INPUT /usr/local/texlive/2019/texmf-dist/tex/latex/amsmath/amstext.sty
INPUT /usr/local/texlive/2019/texmf-dist/tex/latex/amsmath/amsgen.sty
INPUT /usr/local/texlive/2019/texmf-dist/tex/latex/amsmath/amsgen.sty
INPUT /usr/local/texlive/2019/texmf-dist/tex/latex/amsmath/amsbsy.sty
INPUT /usr/local/texlive/2019/texmf-dist/tex/latex/amsmath/amsbsy.sty
INPUT /usr/local/texlive/2019/texmf-dist/tex/latex/amsmath/amsopn.sty
INPUT /usr/local/texlive/2019/texmf-dist/tex/latex/amsmath/amsopn.sty
INPUT /usr/local/texlive/2019/texmf-dist/tex/latex/tools/enumerate.sty
INPUT /usr/local/texlive/2019/texmf-dist/tex/latex/tools/enumerate.sty
INPUT /usr/local/texlive/2019/texmf-dist/tex/latex/enumitem/enumitem.sty
INPUT /usr/local/texlive/2019/texmf-dist/tex/latex/enumitem/enumitem.sty
INPUT /usr/local/texlive/2019/texmf-dist/tex/latex/tools/indentfirst.sty
INPUT /usr/local/texlive/2019/texmf-dist/tex/latex/tools/indentfirst.sty
INPUT /usr/local/texlive/2019/texmf-dist/tex/latex/float/float.sty
INPUT /usr/local/texlive/2019/texmf-dist/tex/latex/float/float.sty
INPUT /usr/local/texlive/2019/texmf-dist/tex/latex/multirow/multirow.sty
INPUT /usr/local/texlive/2019/texmf-dist/tex/latex/multirow/multirow.sty
INPUT /usr/local/texlive/2019/texmf-dist/tex/latex/chngcntr/chngcntr.sty
INPUT /usr/local/texlive/2019/texmf-dist/tex/latex/chngcntr/chngcntr.sty
INPUT /usr/local/texlive/2019/texmf-dist/tex/latex/hyperref/hyperref.sty
INPUT /usr/local/texlive/2019/texmf-dist/tex/latex/hyperref/hyperref.sty
INPUT /usr/local/texlive/2019/texmf-dist/tex/generic/oberdiek/hobsub-hyperref.sty
INPUT /usr/local/texlive/2019/texmf-dist/tex/generic/oberdiek/hobsub-hyperref.sty
INPUT /usr/local/texlive/2019/texmf-dist/tex/generic/oberdiek/hobsub-hyperref.sty
INPUT /usr/local/texlive/2019/texmf-dist/tex/generic/oberdiek/hobsub-generic.sty
INPUT /usr/local/texlive/2019/texmf-dist/tex/generic/oberdiek/hobsub-generic.sty
INPUT /usr/local/texlive/2019/texmf-dist/tex/latex/oberdiek/auxhook.sty
INPUT /usr/local/texlive/2019/texmf-dist/tex/latex/oberdiek/auxhook.sty
INPUT /usr/local/texlive/2019/texmf-dist/tex/latex/oberdiek/kvoptions.sty
INPUT /usr/local/texlive/2019/texmf-dist/tex/latex/oberdiek/kvoptions.sty
INPUT /usr/local/texlive/2019/texmf-dist/tex/latex/hyperref/pd1enc.def
INPUT /usr/local/texlive/2019/texmf-dist/tex/latex/hyperref/pd1enc.def
INPUT /usr/local/texlive/2019/texmf-dist/tex/latex/latexconfig/hyperref.cfg
INPUT /usr/local/texlive/2019/texmf-dist/tex/latex/latexconfig/hyperref.cfg
INPUT /usr/local/texlive/2019/texmf-dist/tex/latex/url/url.sty
INPUT /usr/local/texlive/2019/texmf-dist/tex/latex/url/url.sty
INPUT /usr/local/texlive/2019/texmf-dist/fonts/tfm/adobe/zapfding/pzdr.tfm
INPUT /usr/local/texlive/2019/texmf-dist/tex/latex/hyperref/hxetex.def
INPUT /usr/local/texlive/2019/texmf-dist/tex/latex/hyperref/hxetex.def
INPUT /usr/local/texlive/2019/texmf-dist/tex/latex/hyperref/puenc.def
INPUT /usr/local/texlive/2019/texmf-dist/tex/latex/hyperref/puenc.def
INPUT /usr/local/texlive/2019/texmf-dist/tex/generic/oberdiek/stringenc.sty
INPUT /usr/local/texlive/2019/texmf-dist/tex/generic/oberdiek/stringenc.sty
INPUT /usr/local/texlive/2019/texmf-dist/tex/latex/oberdiek/rerunfilecheck.sty
INPUT /usr/local/texlive/2019/texmf-dist/tex/latex/oberdiek/rerunfilecheck.sty
INPUT /usr/local/texlive/2019/texmf-dist/tex/generic/oberdiek/se-ascii-print.def
INPUT /usr/local/texlive/2019/texmf-dist/tex/generic/oberdiek/se-ascii-print.def
INPUT /usr/local/texlive/2019/texmf-dist/tex/generic/oberdiek/se-ascii-print.def
INPUT /usr/local/texlive/2019/texmf-dist/tex/latex/geometry/geometry.sty
INPUT /usr/local/texlive/2019/texmf-dist/tex/latex/geometry/geometry.sty
INPUT /usr/local/texlive/2019/texmf-dist/tex/latex/tocloft/tocloft.sty
INPUT /usr/local/texlive/2019/texmf-dist/tex/latex/tocloft/tocloft.sty
INPUT /usr/local/texlive/2019/texmf-dist/tex/latex/fancyhdr/fancyhdr.sty
INPUT /usr/local/texlive/2019/texmf-dist/tex/latex/fancyhdr/fancyhdr.sty
INPUT /usr/local/texlive/2019/texmf-dist/tex/latex/caption/caption.sty
INPUT /usr/local/texlive/2019/texmf-dist/tex/latex/caption/caption.sty
INPUT /usr/local/texlive/2019/texmf-dist/tex/latex/caption/caption3.sty
INPUT /usr/local/texlive/2019/texmf-dist/tex/latex/caption/caption3.sty
INPUT /usr/local/texlive/2019/texmf-dist/tex/latex/textcase/textcase.sty
INPUT /usr/local/texlive/2019/texmf-dist/tex/latex/textcase/textcase.sty
INPUT /usr/local/texlive/2019/texmf-dist/tex/latex/titlesec/titlesec.sty
INPUT /usr/local/texlive/2019/texmf-dist/tex/latex/titlesec/titlesec.sty
INPUT /usr/local/texlive/2019/texmf-dist/tex/latex/titlesec/block.tss
INPUT /usr/local/texlive/2019/texmf-dist/tex/latex/titlesec/block.tss
INPUT tmp/thesis.aux
INPUT tmp/thesis.aux
OUTPUT tmp/thesis.aux
INPUT /usr/local/texlive/2019/texmf-dist/tex/latex/tipa/t3cmr.fd
INPUT /usr/local/texlive/2019/texmf-dist/tex/latex/tipa/t3cmr.fd
INPUT /usr/local/texlive/2019/texmf-dist/tex/latex/oberdiek/pdflscape.sty
INPUT /usr/local/texlive/2019/texmf-dist/tex/latex/oberdiek/pdflscape.sty
INPUT /usr/local/texlive/2019/texmf-dist/tex/latex/graphics/lscape.sty
INPUT /usr/local/texlive/2019/texmf-dist/tex/latex/graphics/lscape.sty
INPUT /usr/local/texlive/2019/texmf-dist/tex/latex/hyperref/nameref.sty
INPUT /usr/local/texlive/2019/texmf-dist/tex/latex/hyperref/nameref.sty
INPUT /usr/local/texlive/2019/texmf-dist/tex/generic/oberdiek/gettitlestring.sty
INPUT /usr/local/texlive/2019/texmf-dist/tex/generic/oberdiek/gettitlestring.sty
INPUT tmp/thesis.out
INPUT tmp/thesis.out
INPUT tmp/thesis.out
INPUT tmp/thesis.out
INPUT ./tmp/thesis.out
OUTPUT tmp/thesis.out
INPUT tmp/thesis.toc
INPUT tmp/thesis.toc
INPUT /usr/local/texlive/2019/texmf-dist/fonts/tfm/public/cm/cmmi12.tfm
INPUT /usr/local/texlive/2019/texmf-dist/fonts/tfm/public/cm/cmsy10.tfm
INPUT /usr/local/texlive/2019/texmf-dist/fonts/tfm/public/cm/cmex10.tfm
INPUT /usr/local/texlive/2019/texmf-dist/fonts/tfm/public/amsfonts/cmextra/cmex7.tfm
INPUT /usr/local/texlive/2019/texmf-dist/tex/latex/amsfonts/umsa.fd
INPUT /usr/local/texlive/2019/texmf-dist/tex/latex/amsfonts/umsa.fd
INPUT /usr/local/texlive/2019/texmf-dist/fonts/tfm/public/amsfonts/symbols/msam10.tfm
INPUT /usr/local/texlive/2019/texmf-dist/fonts/tfm/public/amsfonts/symbols/msam10.tfm
INPUT /usr/local/texlive/2019/texmf-dist/fonts/tfm/public/amsfonts/symbols/msam7.tfm
INPUT /usr/local/texlive/2019/texmf-dist/tex/latex/amsfonts/umsb.fd
INPUT /usr/local/texlive/2019/texmf-dist/tex/latex/amsfonts/umsb.fd
INPUT /usr/local/texlive/2019/texmf-dist/fonts/tfm/public/amsfonts/symbols/msbm10.tfm
INPUT /usr/local/texlive/2019/texmf-dist/fonts/tfm/public/amsfonts/symbols/msbm10.tfm
INPUT /usr/local/texlive/2019/texmf-dist/fonts/tfm/public/amsfonts/symbols/msbm7.tfm
INPUT /usr/local/texlive/2019/texmf-dist/fonts/tfm/public/cm/cmr12.tfm
OUTPUT tmp/thesis.xdv
OUTPUT tmp/thesis.toc
INPUT inc/0-intro.tex
INPUT inc/0-intro.tex
INPUT inc/1-literature.tex
INPUT inc/1-literature.tex
INPUT inc/1/1-0-all.tex
INPUT inc/1/1-0-all.tex
INPUT images/literature/traintrack.png
INPUT images/literature/pinholecam1.png
INPUT images/literature/camcoord.png
INPUT images/literature/nonsquare.png
INPUT images/literature/unrad.png
INPUT images/literature/rad.png
INPUT images/literature/chess_dist.png
INPUT images/literature/chess_undist.png
INPUT images/literature/extrinsic_param.png
INPUT images/literature/extrinsic_param.png
INPUT images/literature/chess.png
INPUT images/literature/epipolar1.png
INPUT images/literature/epipolar2.png
INPUT images/literature/epipolar_line1.png
INPUT images/literature/epipolar_line2.png
INPUT images/literature/rectification1.png
INPUT images/literature/rectification2.png
INPUT images/literature/pure_rotation.png
INPUT images/literature/rectification_BBox.png
INPUT images/literature/photo1.png
INPUT images/literature/photo2.png
INPUT inc/1/pics/sift1.png
INPUT inc/1/pics/sift2.png
INPUT inc/2-special.tex
INPUT inc/2-special.tex
INPUT inc/2/2-1-pz.tex
INPUT inc/2/2-1-pz.tex
INPUT inc/2/pics/structure.pdf
INPUT inc/2/2-2-algorithm.tex
INPUT inc/2/2-2-algorithm.tex
INPUT images/special/scheme.png
INPUT images/special/feature_extraction.jpeg
INPUT images/special/matching.png
INPUT images/special/epipolar.png
INPUT images/special/pnp.png
INPUT images/literature/pnp.png
INPUT images/special/ba.png
INPUT inc/2/2-3-software.tex
INPUT inc/2/2-3-software.tex
INPUT tmp/thesis.aux
INPUT ./tmp/thesis.out
